{
  "page": 6,
  "total_results": 149,
  "total_pages": 8,
  "results": [
      {
          "vote_count": 0,
          "id": 471393,
          "video": false,
          "vote_average": 0,
          "title": "Obi Wan: A Star Wars Story",
          "popularity": 0.6,
          "poster_path": "/pe54mJYtyVIK0kTYs3K5OxEg61Z.jpg",
          "original_language": "en",
          "original_title": "Obi Wan: A Star Wars Story",
          "genre_ids": [
              878,
              14,
              12
          ],
          "backdrop_path": null,
          "adult": false,
          "overview": "A standalone Star Wars adventure focused on the character Obi-Wan Kenobi.",
          "release_date": ""
      },
      {
          "vote_count": 1,
          "id": 496786,
          "video": false,
          "vote_average": 4,
          "title": "Eternal: A Star Wars Fan Film",
          "popularity": 0.6,
          "poster_path": "/uHYjVNMmiDSULekc12EfI5du50i.jpg",
          "original_language": "en",
          "original_title": "Eternal: A Star Wars Fan Film",
          "genre_ids": [
              878
          ],
          "backdrop_path": "/eBWdlVEvLAtGpmpjeX7fp4OHEYt.jpg",
          "adult": false,
          "overview": "It is a dark era of war for the galaxy, over 3000 years before the events of Death Stars and Skywalkers. THE ETERNAL EMPIRE crushes both the Jedi and Sith alike in their conquest of the galaxy. SENYA TIRALL, the weary knight and former wife to the IMMORTAL EMPEROR VALKORION, seeks out traitors on the far edges of space. Far away are her twin sons, ARCANN and THEXAN, leading the conquest, whilst her powerful daughter VAYLIN has been locked up in a distant place.",
          "release_date": "2017-09-28"
      },
      {
          "vote_count": 2,
          "id": 507052,
          "video": false,
          "vote_average": 8,
          "title": "Star Wars: The Force of Sound",
          "popularity": 0.6,
          "poster_path": "/q41hKQWdZVoGx4aNd8Ul2oFeaBW.jpg",
          "original_language": "en",
          "original_title": "Star Wars: The Force of Sound",
          "genre_ids": [
              99
          ],
          "backdrop_path": null,
          "adult": false,
          "overview": "Go inside the sound design of Star Wars: The Last Jedi. From the ignition of a lightsaber to the chirp of a porg, Star Wars would not be the same without the brilliant sound design and mixing created by Skywalker Sound.",
          "release_date": "2018-02-20"
      },
      {
          "vote_count": 0,
          "id": 499988,
          "video": false,
          "vote_average": 0,
          "title": "Dark Awakening: A Star Wars Fan Film",
          "popularity": 0.6,
          "poster_path": "/rLUB2mc2P2bRYa8uPr4yd79Y2dz.jpg",
          "original_language": "en",
          "original_title": "Dark Awakening: A Star Wars Fan Film",
          "genre_ids": [],
          "backdrop_path": null,
          "adult": false,
          "overview": "Dark Awakening: A Star Wars Fan Film",
          "release_date": ""
      },
      {
          "vote_count": 0,
          "id": 584907,
          "video": false,
          "vote_average": 0,
          "title": "Star Fleet: The Thalian Space Wars",
          "popularity": 0.6,
          "poster_path": "/eCP0KfBKvbWsrPb5nIJ7q665IFc.jpg",
          "original_language": "en",
          "original_title": "Star Fleet: The Thalian Space Wars",
          "genre_ids": [
              878,
              10770
          ],
          "backdrop_path": "/koTIAW0gVUuQVzWBoFUcKX220Hn.jpg",
          "adult": false,
          "overview": "An English language, feature-length version of the Japanese marionette series 'Ekkusu bonbâ'.  As the year 3000 approaches, a war-torn Solar System is invaded by the Imperial Alliance. The experimental X Bomber spacecraft with its young crew must defend the galaxy.",
          "release_date": "1983-01-01"
      },
      {
          "vote_count": 6,
          "id": 418363,
          "video": false,
          "vote_average": 8.3,
          "title": "Star Wars Rebels: Steps Into Shadow",
          "popularity": 0.6,
          "poster_path": "/zJzTpfdmPVKdZtoAjJqQlLPTZea.jpg",
          "original_language": "en",
          "original_title": "Star Wars Rebels: Steps Into Shadow",
          "genre_ids": [
              16,
              878,
              28,
              12
          ],
          "backdrop_path": null,
          "adult": false,
          "overview": "Ezra, having grown in power, leads a mission to break the crew's old friend Hondo Ohnaka out of prison. Meanwhile, Grand Admiral Thrawn -- a master Imperial strategist -- has vowed to dismantle and destroy the growing rebellion.",
          "release_date": "2016-07-16"
      },
      {
          "vote_count": 0,
          "id": 586180,
          "video": false,
          "vote_average": 0,
          "title": "Star Wars: Tales of the Twin Suns, Episode One: Birth of a Monster",
          "popularity": 1.129,
          "poster_path": "/xHIRfVyGZWGDPujSM8um6hEyq6p.jpg",
          "original_language": "en",
          "original_title": "Star Wars: Tales of the Twin Suns, Episode One: Birth of a Monster",
          "genre_ids": [
              878,
              14
          ],
          "backdrop_path": null,
          "adult": false,
          "overview": "Birth of a Monster is a story of discovery and friendship surrounding a mysterious young boy and his loyal droid on desert planet Tatooine. What they discover with shape the future.",
          "release_date": "2019-02-27"
      },
      {
          "vote_count": 4,
          "id": 369030,
          "video": false,
          "vote_average": 6.3,
          "title": "Lego Star Wars: The Yoda Chronicles: Episode IV: Escape From The Jedi Temple",
          "popularity": 1.105,
          "poster_path": "/3qvQuOY8lnonKpaFndEwBj12CMX.jpg",
          "original_language": "en",
          "original_title": "Lego Star Wars: The Yoda Chronicles: Episode IV: Escape From The Jedi Temple",
          "genre_ids": [
              16,
              35,
              10751
          ],
          "backdrop_path": "/3tNagYiYIxeEltPhgO3wHB8vclk.jpg",
          "adult": false,
          "overview": "Luke's poor judgment nearly gets him and his friends captured by Darth Vader, and, after witnessing this bit of immaturity, both Yoda and the ghost of Obi-Wan make the decision to expand Luke's training and bring out the last of the Jedi Holocrons",
          "release_date": "2014-05-04"
      },
      {
          "vote_count": 6,
          "id": 379095,
          "video": false,
          "vote_average": 6.2,
          "title": "Lego Star Wars: The Yoda Chronicles: Episode III: Attack of the Jedi",
          "popularity": 1.103,
          "poster_path": "/x8kfIdmhCXW1CwoMKXZdmu5pxOp.jpg",
          "original_language": "en",
          "original_title": "Lego Star Wars: The Yoda Chronicles: Episode III: Attack of the Jedi",
          "genre_ids": [
              16
          ],
          "backdrop_path": "/vWj4ZztRaV8qJfDV1uT9jsTt22w.jpg",
          "adult": false,
          "overview": "The tide of the war has turned.  DARTH SIDIOUS' plot to create  an army of SITH CLONES has failed,  along with his other plot  to clone the one CLONE the  SITH did clone into CLONES  cloned from that CLONE.  I have no idea what I just read.  Let's just say the bad guys  are losing.",
          "release_date": "2013-11-27"
      },
      {
          "vote_count": 0,
          "id": 292410,
          "video": false,
          "vote_average": 0,
          "title": "Tales from the Endor Woods",
          "popularity": 0.6,
          "poster_path": "/sc9X6xQ78PpHwHRXjoD3Yg52FGQ.jpg",
          "original_language": "en",
          "original_title": "Tales from the Endor Woods",
          "genre_ids": [
              10751,
              16
          ],
          "backdrop_path": "/a2oOSExT1KrkczNafY3nbmwd403.jpg",
          "adult": false,
          "overview": "Wicket remembers four memorable adventures from his youth: how he fixed up his great grandfather's battle wagon, the occasion when Latara ran away from the Ewok village to join the traveling Jindas, the time his father Deej fell terrible ill and the story of Kneesa's long lost sister, Asha.",
          "release_date": "1997-02-11"
      },
      {
          "vote_count": 4,
          "id": 479310,
          "video": false,
          "vote_average": 7.8,
          "title": "Star Wars Rebels: Heroes of Mandalore",
          "popularity": 0.637,
          "poster_path": "/jNyRTohZOID3SYkjT7b3uvEUCyP.jpg",
          "original_language": "en",
          "original_title": "Star Wars Rebels: Heroes of Mandalore",
          "genre_ids": [
              28,
              16,
              878,
              14
          ],
          "backdrop_path": null,
          "adult": false,
          "overview": "Sabine leads Ezra, Kanan and an army of her fellow Mandalorians back to her home world to rescue her father from the clutches of the Empire. When she discovers that the Empire has resurrected a devastating weapon she created and plans to use it against her people, she must decide whether to destroy it or use it herself.",
          "release_date": "2017-10-16"
      },
      {
          "vote_count": 1,
          "id": 207949,
          "video": false,
          "vote_average": 4,
          "title": "The Pirates and the Prince",
          "popularity": 0.6,
          "poster_path": "/x1NG57tcSH4ImqLZqgnpASsLyOL.jpg",
          "original_language": "en",
          "original_title": "The Pirates and the Prince",
          "genre_ids": [
              878,
              16,
              12,
              10751
          ],
          "backdrop_path": "/tuEQDhYHuoPT0LGjEKZEoEEadUv.jpg",
          "adult": false,
          "overview": "Artoo, Threepio and a broken down android are traded into the hands of young miner Jann Tosh. The android turns out to be an alien with amnesia and a price on his head. It is in fact Mon Julpa, prince of Tammuz-an, who has been put in this predicament by the power hungry vizier Zatec-Cha. Jann, the droids, and a female freight pilot named Jessica Meade help Julpa claim his throne, battle the Pirates of Tarnoonga and settle a dispute with Tammuz-an clan leader Lord Toda. Written by Il Tesoro",
          "release_date": "1997-02-11"
      },
      {
          "vote_count": 4,
          "id": 408300,
          "video": false,
          "vote_average": 6.3,
          "title": "Lego Star Wars: The Yoda Chronicles - Raid on Coruscant",
          "popularity": 0.737,
          "poster_path": "/d0nFx7eQvXsGZgRkVLY7NymtZXd.jpg",
          "original_language": "en",
          "original_title": "Lego Star Wars: The Yoda Chronicles - Raid on Coruscant",
          "genre_ids": [
              28,
              16,
              10751,
              878
          ],
          "backdrop_path": "/sOZF1vaRscQPLTrjbKKP77XmTNQ.jpg",
          "adult": false,
          "overview": "The Emperor uses the information on the recovered Holocrons to launch devastating attacks on planets sympathetic to the Rebellion. Luke knows there's only one solution: a daring raid on Coruscant to get the Holocrons back.",
          "release_date": "2014-09-07"
      },
      {
          "vote_count": 0,
          "id": 485997,
          "video": false,
          "vote_average": 0,
          "title": "Star Wars: The Magic & the Mystery",
          "popularity": 0.6,
          "poster_path": "/8TKZNYSI62UxBxhrhDeFaiYbQki.jpg",
          "original_language": "en",
          "original_title": "Star Wars: The Magic & the Mystery",
          "genre_ids": [],
          "backdrop_path": null,
          "adult": false,
          "overview": "Host Howie Long takes viewers on a tour of the \"Star Wars\" universe, as Fox TV celebrates the re-release of the original three legendary films in this one hour special.",
          "release_date": "1997-02-06"
      },
      {
          "vote_count": 1,
          "id": 496039,
          "video": false,
          "vote_average": 7,
          "title": "Days Past - A Star Wars Fan Film",
          "popularity": 0.6,
          "poster_path": "/3rYUP6J4n2bIoJKwbgw8a4HPvYW.jpg",
          "original_language": "en",
          "original_title": "Days Past - A Star Wars Fan Film",
          "genre_ids": [
              878
          ],
          "backdrop_path": null,
          "adult": false,
          "overview": "Years after the collapse of The Republic, Valera has carved out a life for herself in the galaxy's outer rim. But when an old student returns, she is thrust back into the life she left behind.",
          "release_date": "2017-08-02"
      },
      {
          "vote_count": 0,
          "id": 568001,
          "video": false,
          "vote_average": 0,
          "title": "Die Science Fiction Propheten - George Lucas: Star Wars",
          "popularity": 0.6,
          "poster_path": "/954mdlR4103pFxhuODhxraVp4tT.jpg",
          "original_language": "de",
          "original_title": "Die Science Fiction Propheten - George Lucas: Star Wars",
          "genre_ids": [],
          "backdrop_path": null,
          "adult": false,
          "overview": "",
          "release_date": ""
      },
      {
          "vote_count": 1,
          "id": 513761,
          "video": true,
          "vote_average": 10,
          "title": "Star Wars: The Last Jedi - Scene Breakdowns",
          "popularity": 0.6,
          "poster_path": "/fmb9IauZnCsKek1UTeZ7amAWQSU.jpg",
          "original_language": "en",
          "original_title": "Star Wars: The Last Jedi - Scene Breakdowns",
          "genre_ids": [
              99
          ],
          "backdrop_path": "/pK9SWMUqkoA9D8trFs6YlA01WF8.jpg",
          "adult": false,
          "overview": "Star Wars: The Last Jedi bonus disc content. Scene breakdowns of the amazing 2017 movie.",
          "release_date": "2018-03-12"
      },
      {
          "vote_count": 0,
          "id": 533716,
          "video": false,
          "vote_average": 0,
          "title": "Star Wars: Episode III.VIII: Rise of the Troopers",
          "popularity": 0.6,
          "poster_path": null,
          "original_language": "en",
          "original_title": "Star Wars: Episode III.VIII: Rise of the Troopers",
          "genre_ids": [],
          "backdrop_path": null,
          "adult": false,
          "overview": "TK-221 and TK-212 head down to Coruscant to appear on the television show ONE 2 ONE with Skip Antilles. During the interview the troopers recall their first meeting and how they became the elite troopers for the Empire they are today.",
          "release_date": "2007-05-17"
      },
      {
          "vote_count": 2,
          "id": 582392,
          "video": false,
          "vote_average": 4,
          "title": "Star Wars: The Force and the Fury",
          "popularity": 0.6,
          "poster_path": "/tKKo2VQy5064fZ0lIz2OKagy3Zp.jpg",
          "original_language": "en",
          "original_title": "Star Wars: The Force and the Fury",
          "genre_ids": [
              878,
              14,
              28
          ],
          "backdrop_path": "/2W63WtoxBzNgGsDkGMesiVhelM5.jpg",
          "adult": false,
          "overview": "A Jedi crash lands on a barren planet and is pursued by a mysterious Sith who seems to know him.",
          "release_date": "2017-04-22"
      },
      {
          "vote_count": 0,
          "id": 454606,
          "video": true,
          "vote_average": 0,
          "title": "Star Wars: The Force Awakens - On Set",
          "popularity": 0.6,
          "poster_path": null,
          "original_language": "en",
          "original_title": "Star Wars: The Force Awakens - On Set",
          "genre_ids": [
              99
          ],
          "backdrop_path": null,
          "adult": false,
          "overview": "Alex Zane heads to Pinewood Studios to take a behind-the-scenes look at Star Wars: The Force Awakens. Includes interviews with JJ Abrams, John Boyega and Oscar Isaac.",
          "release_date": "2015-12-01"
      }
  ]
}
