{
  "page": 5,
  "total_results": 149,
  "total_pages": 8,
  "results": [
      {
          "vote_count": 0,
          "id": 584117,
          "video": false,
          "vote_average": 0,
          "title": "Star Wars: The Prequel Trilogy",
          "popularity": 0.6,
          "poster_path": "/xJzoOqE57TRno2vubuMuSsceu5c.jpg",
          "original_language": "en",
          "original_title": "Star Wars: The Prequel Trilogy",
          "genre_ids": [],
          "backdrop_path": null,
          "adult": false,
          "overview": "The trilogy consists of The Phantom Menace (1999), Attack of the Clones (2002), and Revenge of the Sith (2005).",
          "release_date": ""
      },
      {
          "vote_count": 1,
          "id": 351651,
          "video": false,
          "vote_average": 5,
          "title": "The Untitled Star Wars Mockumentary",
          "popularity": 0.6,
          "poster_path": "/pNLtE06Yo0FxO8RSV40MlnnzvWO.jpg",
          "original_language": "en",
          "original_title": "The Untitled Star Wars Mockumentary",
          "genre_ids": [
              35
          ],
          "backdrop_path": null,
          "adult": false,
          "overview": "Damon Packard parodies the making of Star Wars: Attack of the Clones.",
          "release_date": "2003-06-25"
      },
      {
          "vote_count": 0,
          "id": 368729,
          "video": false,
          "vote_average": 0,
          "title": "Star Wars: The Holo Xperience",
          "popularity": 0.6,
          "poster_path": "/cbJiI4UoufvhpBz6fywmOqVRlRt.jpg",
          "original_language": "es",
          "original_title": "Star Wars: The Holo Xperience",
          "genre_ids": [
              878
          ],
          "backdrop_path": null,
          "adult": false,
          "overview": "The Rebels come into the forest on the planet Endor. A soldier stays behind to guard the ship, but soon a pair of Imperial Scout Troopers arrive to investigate, and the mission is in danger of being discovered.",
          "release_date": "2013-10-24"
      },
      {
          "vote_count": 1,
          "id": 497608,
          "video": false,
          "vote_average": 7,
          "title": "Star Wars: Smuggler's Run",
          "popularity": 0.6,
          "poster_path": "/6QojMFqKCAm0mQwPMtigF3SUq5l.jpg",
          "original_language": "en",
          "original_title": "Star Wars: Smuggler's Run",
          "genre_ids": [
              878
          ],
          "backdrop_path": "/wMp1O9Vt3JMl33GeC1PAALkvUOj.jpg",
          "adult": false,
          "overview": "Exploration of the more brutal and sinister characters within the Star Wars universe. Follows Bounty hunters, smugglers and the Empire in their hunt for the last remnant of the Jedi archives. A small holocron that can change the fate of the Galaxy..",
          "release_date": "2013-08-09"
      },
      {
          "vote_count": 1,
          "id": 578870,
          "video": true,
          "vote_average": 8,
          "title": "Star Wars Uncut: Director's Cut",
          "popularity": 0.6,
          "poster_path": "/3pvEme3PUWZ3MlRZpJHbDDysEgh.jpg",
          "original_language": "en",
          "original_title": "Star Wars Uncut: Director's Cut",
          "genre_ids": [
              28,
              878
          ],
          "backdrop_path": null,
          "adult": false,
          "overview": "In 2009, Casey Pugh asked thousands of Internet users to remake \"Star Wars: A New Hope\" into a fan film, 15 seconds at a time. Contributors were allowed to recreate scenes from Star Wars however they wanted. Within just a few months SWU grew into a wild success. The creativity that poured into the project was unimaginable.",
          "release_date": "2012-01-18"
      },
      {
          "vote_count": 0,
          "id": 436621,
          "video": false,
          "vote_average": 0,
          "title": "Star Wars : L'incroyable Légende",
          "popularity": 0.6,
          "poster_path": null,
          "original_language": "fr",
          "original_title": "Star Wars : L'incroyable Légende",
          "genre_ids": [
              99
          ],
          "backdrop_path": null,
          "adult": false,
          "overview": "",
          "release_date": "2015-11-25"
      },
      {
          "vote_count": 0,
          "id": 294822,
          "video": false,
          "vote_average": 0,
          "title": "Hollywood Rivals: Star Wars vs. Star Trek",
          "popularity": 0.6,
          "poster_path": "/tEacV6cPxe9nznaMkoZp3A6rAUQ.jpg",
          "original_language": "en",
          "original_title": "Hollywood Rivals: Star Wars vs. Star Trek",
          "genre_ids": [
              99
          ],
          "backdrop_path": null,
          "adult": false,
          "overview": "Star Wars vs. Star Trek. George Lucas, Liam Neeson, Samuel L. Jackson, Natalie Portman, Mark Hamill, Carrie Fisher and Harrison Ford share insights and the special effects creator compares the worlds of Star Trek and Star Wars.",
          "release_date": "2001-10-19"
      },
      {
          "vote_count": 0,
          "id": 292404,
          "video": false,
          "vote_average": 0,
          "title": "The Haunted Village",
          "popularity": 0.6,
          "poster_path": "/sc9X6xQ78PpHwHRXjoD3Yg52FGQ.jpg",
          "original_language": "en",
          "original_title": "The Haunted Village",
          "genre_ids": [
              10751,
              16
          ],
          "backdrop_path": "/xfJoi65pK7PVTWJKe64ziM8d1Hs.jpg",
          "adult": false,
          "overview": "Morag the Tulga Witch seeks revenge on her old enemy Logray, shaman of the Ewoks, who holds the magic Sunstar while she possesses it's darker half, the Shadowstone.",
          "release_date": "1997-02-11"
      },
      {
          "vote_count": 16,
          "id": 253150,
          "video": false,
          "vote_average": 6.6,
          "title": "Plastic Galaxy: The Story of Star Wars Toys",
          "popularity": 0.912,
          "poster_path": "/p4XtRTZOHoDnCheNX1e1mruperF.jpg",
          "original_language": "en",
          "original_title": "Plastic Galaxy: The Story of Star Wars Toys",
          "genre_ids": [
              99
          ],
          "backdrop_path": "/koXWaTPiOAbK9DsOIwIamxcAsQo.jpg",
          "adult": false,
          "overview": "Plastic Galaxy explores the ground breaking and breathtaking world of 'Star Wars' toys. Through interviews with former Kenner employees, experts, authors, and collectors, the documentary looks at the toys' history, influence, and the passions they elicit today.",
          "release_date": "2014-01-14"
      },
      {
          "vote_count": 3,
          "id": 207950,
          "video": false,
          "vote_average": 3.5,
          "title": "Treasure of the Hidden Planet",
          "popularity": 0.681,
          "poster_path": "/uSv5RT8NScJ7Doy2pZhXiAmXNDR.jpg",
          "original_language": "en",
          "original_title": "Treasure of the Hidden Planet",
          "genre_ids": [
              878,
              16,
              12,
              10751
          ],
          "backdrop_path": "/vwjGVjiZbHyGVhDdqKgJ0tp4Q3G.jpg",
          "adult": false,
          "overview": "Mungo Baobab and his droids, Threepio and Artoo, are trailing the Rainbow comets of Manda in search of the fabled Roon system. Before they get there, they make an enemy out of the greedy Governor Koong. On Roon, they meet Auren Yomm and join her Umbo racing team in the Roon Games. Mungo takes up his old uncle Ogger's quest of finding the source of the valuable Roonstones. Meanwhile, Koong uses germ warfare against the rebellious province of Umboo and it becomes a race against time to find a cure for the Rooze infection. Written by Il Tesoro",
          "release_date": "1997-02-11"
      },
      {
          "vote_count": 3,
          "id": 215113,
          "video": false,
          "vote_average": 4.3,
          "title": "Star Wars: Wrath of the Mandalorian",
          "popularity": 0.683,
          "poster_path": "/w4he81pLkBebvXxNrv15JcQLAbC.jpg",
          "original_language": "en",
          "original_title": "Star Wars: Wrath of the Mandalorian",
          "genre_ids": [
              878
          ],
          "backdrop_path": null,
          "adult": false,
          "overview": "Many years after the Clone Wars ended, Darth Vader sends bounty hunter Boba Fett to Kashyyyk to track down the last of the Jedi, but he soon finds out a terrible truth about Vader while on the hunt.",
          "release_date": "2008-07-05"
      },
      {
          "vote_count": 1,
          "id": 486217,
          "video": false,
          "vote_average": 10,
          "title": "Untitled Star Wars Trilogy: Episode III",
          "popularity": 0.623,
          "poster_path": null,
          "original_language": "en",
          "original_title": "Untitled Star Wars Trilogy: Episode III",
          "genre_ids": [
              878,
              14,
              28,
              12
          ],
          "backdrop_path": null,
          "adult": false,
          "overview": "The third in a trilogy of films, set apart from the Skywalker Saga.",
          "release_date": ""
      },
      {
          "vote_count": 1,
          "id": 486216,
          "video": false,
          "vote_average": 10,
          "title": "Untitled Star Wars Trilogy: Episode II",
          "popularity": 0.62,
          "poster_path": null,
          "original_language": "en",
          "original_title": "Untitled Star Wars Trilogy: Episode II",
          "genre_ids": [
              878,
              14,
              28,
              12
          ],
          "backdrop_path": null,
          "adult": false,
          "overview": "The second in a trilogy of films, set apart from the Skywalker Saga.",
          "release_date": ""
      },
      {
          "vote_count": 8,
          "id": 81233,
          "video": false,
          "vote_average": 6.2,
          "title": "LEGO Star Wars: The Quest for R2-D2",
          "popularity": 0.6,
          "poster_path": "/lqtQIzkgqhhtefRnd5HBlErHlT4.jpg",
          "original_language": "en",
          "original_title": "LEGO Star Wars: The Quest for R2-D2",
          "genre_ids": [
              16,
              878,
              10751
          ],
          "backdrop_path": "/kCLxbrWFERqRKrvaM3nbLKf2Drc.jpg",
          "adult": false,
          "overview": "Tension is building across the galaxy! Anakin Skywalker and R2-D2 have infiltrated a Separatist base.  With a very important secret stored inside the droid, they barely escape, but they are pursued and Artoo is lost somewhere in deep space!",
          "release_date": "2009-06-27"
      },
      {
          "vote_count": 2,
          "id": 369036,
          "video": false,
          "vote_average": 5.5,
          "title": "Lego Star Wars The Yoda Chronicles: Episode V: Race For The Holocrons",
          "popularity": 1.168,
          "poster_path": "/8MNSitYxelLS5o0gd2gqdwCPcPH.jpg",
          "original_language": "en",
          "original_title": "Lego Star Wars The Yoda Chronicles: Episode V: Race For The Holocrons",
          "genre_ids": [
              10751,
              16,
              35
          ],
          "backdrop_path": "/dDO7VIqePVvyfczkFYWfzmbnnkv.jpg",
          "adult": false,
          "overview": "Luke Skywalker is on a quest to discover the hiding place of the HOLOCRONS the sacred crystals needed to complete his JEDI training. Years earlier, at the direction of Jedi Master YODA, Obi-Wan Kenobi buried them on Luke's desolate home planet of TATOOINE.",
          "release_date": "2014-06-15"
      },
      {
          "vote_count": 0,
          "id": 527333,
          "video": false,
          "vote_average": 0,
          "title": "Star Wars: Beyond the Dune Sea",
          "popularity": 0.601,
          "poster_path": "/esigWsduIwHdDypU6BNH6muEdo6.jpg",
          "original_language": "en",
          "original_title": "Star Wars: Beyond the Dune Sea",
          "genre_ids": [
              878
          ],
          "backdrop_path": null,
          "adult": false,
          "overview": "",
          "release_date": "2015-03-01"
      },
      {
          "vote_count": 2,
          "id": 219566,
          "video": false,
          "vote_average": 8,
          "title": "Star Wars: Music by John Williams",
          "popularity": 0.6,
          "poster_path": "/w0vvZHLPi8Ji2NmR9pNXxuoblTY.jpg",
          "original_language": "en",
          "original_title": "Star Wars: Music by John Williams",
          "genre_ids": [
              99,
              10402
          ],
          "backdrop_path": null,
          "adult": false,
          "overview": "BBC documentary. Witness John Williams composing the legendary score for The Empire Strikes Back and conducting the London Symphony Orchestra.",
          "release_date": "1980-05-18"
      },
      {
          "vote_count": 1,
          "id": 426860,
          "video": false,
          "vote_average": 10,
          "title": "Pro Wrestling USA: Star Wars 1985",
          "popularity": 0.6,
          "poster_path": null,
          "original_language": "en",
          "original_title": "Pro Wrestling USA: Star Wars 1985",
          "genre_ids": [],
          "backdrop_path": null,
          "adult": false,
          "overview": "February 24, 1985 in East Rutherford, NJ",
          "release_date": ""
      },
      {
          "vote_count": 2,
          "id": 357450,
          "video": false,
          "vote_average": 7,
          "title": "Star Wars: The New Republic Anthology",
          "popularity": 0.6,
          "poster_path": "/aTviyMj2UTNhGds3eIiR3f7A2Iq.jpg",
          "original_language": "en",
          "original_title": "Star Wars: The New Republic Anthology",
          "genre_ids": [
              14,
              28,
              878,
              12
          ],
          "backdrop_path": null,
          "adult": false,
          "overview": "Boba Fett has escaped the Sarlacc Pit, only to find himself fighting alongside a Rebellion that wishes to establish a New Republic.",
          "release_date": "2015-09-01"
      },
      {
          "vote_count": 2,
          "id": 372909,
          "video": false,
          "vote_average": 5.5,
          "title": "How Star Wars Changed the World",
          "popularity": 0.6,
          "poster_path": "/zsGnNy6Xm8XzoeLWkb2AwT7GczB.jpg",
          "original_language": "en",
          "original_title": "How Star Wars Changed the World",
          "genre_ids": [
              99
          ],
          "backdrop_path": "/orndNgQ85NTxuyDVdND1B1f156M.jpg",
          "adult": false,
          "overview": "Documentary taking a warm and celebratory look at the countless ways the Star Wars universe has inspired fans all over the globe. Whether it be adhering to the scriptures of Jedi, perfecting one's light-saber skills, designing a Wookie costume, or making a self-financed fan film, this show revels in the bright side of the Force.",
          "release_date": "2015-12-11"
      }
  ]
}
