{
  "page": 2,
  "total_results": 149,
  "total_pages": 8,
  "results": [
      {
          "vote_count": 55,
          "id": 287663,
          "video": false,
          "vote_average": 7,
          "title": "Star Wars Rebels: Spark of Rebellion",
          "popularity": 3.496,
          "poster_path": "/sgZvwdGuqOfbJTfUNq5lh9B4HQy.jpg",
          "original_language": "en",
          "original_title": "Star Wars Rebels: Spark of Rebellion",
          "genre_ids": [
              12,
              16,
              28,
              878
          ],
          "backdrop_path": "/myt3uYcUL6DpQs20pObJrJbBWMu.jpg",
          "adult": false,
          "overview": "A Long Time Ago In A Galaxy Far, Far Away… Against the might of the Galactic Empire, an unlikely band of heroes emerges to renew the fight for freedom.  Five years before the events of Star Wars Episode IV: A New Hope, the reigning evil Empire continues to tighten its grip of power and fear throughout the cosmos. But even amidst the tyranny and oppression of these dark days, a glimmer of light emerges. Meet the ragtag crew of the starship Ghost: Twi’lek pilot Hera, street-smart pickpocket Ezra, team leader Kanan, alien enforcer Zeb, explosives expert Sabine, and Chopper, the cantankerous Droid. Together, they embark on action-packed adventures, battle ruthless villains, and ignite the very first Spark Of Rebellion against a surging tide of Stormtroopers, TIE fighters and the mysterious Inquisitor.",
          "release_date": "2014-10-03"
      },
      {
          "vote_count": 48,
          "id": 76180,
          "video": false,
          "vote_average": 7.7,
          "title": "Empire of Dreams: The Story of the Star Wars Trilogy",
          "popularity": 3.466,
          "poster_path": "/nvYb5G5p94dERKNrALKFNSdHS4O.jpg",
          "original_language": "en",
          "original_title": "Empire of Dreams: The Story of the Star Wars Trilogy",
          "genre_ids": [
              99
          ],
          "backdrop_path": "/klGSFk41qpDoHxOWW4r1hYdpFQn.jpg",
          "adult": false,
          "overview": "Empire of Dreams: The Story of the Star Wars Trilogy is a 2004 documentary film directed by Kevin Burns and narrated by Robert Clotworthy. It documents the making of the original Star Wars trilogy.",
          "release_date": "2004-09-12"
      },
      {
          "vote_count": 91,
          "id": 1884,
          "video": false,
          "vote_average": 5.6,
          "title": "The Ewok Adventure",
          "popularity": 8.645,
          "poster_path": "/nBj50ywoyBPHlXXIByIxzgjPWPZ.jpg",
          "original_language": "en",
          "original_title": "The Ewok Adventure",
          "genre_ids": [
              12,
              10751,
              14,
              878,
              10770
          ],
          "backdrop_path": "/mcFPTYm90593alFemhEMZIaiMa6.jpg",
          "adult": false,
          "overview": "The Towani family civilian shuttlecraft crashes on the forest moon of Endor. The four Towani's are separated. Jermitt and Catarine, the mother and father are captured by the giant Gorax, and Mace and Cindel, the son and daughter, are missing when they are captured. The next day, the Ewok Deej is looking for his two sons when they find Cindel all alone in the shuttle (Mace and Cindel were looking for the transmitter to send a distress call), when Mace appears with his emergency blaster. Eventually, the four-year old Cindel is able to convince the teenage Mace that the Ewoks are nice. Then, the Ewoks and the Towani's go on an adventure to find the elder Towanis.",
          "release_date": "1985-02-06"
      },
      {
          "vote_count": 0,
          "id": 567097,
          "video": false,
          "vote_average": 0,
          "title": "Star wars: Goretech",
          "popularity": 1.557,
          "poster_path": "/cDYtrX0r80OdhzT78dZaUUunioT.jpg",
          "original_language": "es",
          "original_title": "Star wars: Goretech",
          "genre_ids": [
              878,
              35
          ],
          "backdrop_path": null,
          "adult": false,
          "overview": "The imperial forces of Lord Quimio capture princess Felelia and steal a big cargo of vital force for the rebellion. Obi Wan Quequena, warned by the princess, starts gathering a group of brave people to recover the force, save the princess and end the empire that strikes the galaxy.",
          "release_date": "2018-12-07"
      },
      {
          "vote_count": 84,
          "id": 10372,
          "video": false,
          "vote_average": 5.2,
          "title": "Ewoks: The Battle for Endor",
          "popularity": 9.566,
          "poster_path": "/nk5dDPed5IpAqC9G4gcADEP4VOn.jpg",
          "original_language": "en",
          "original_title": "Ewoks: The Battle for Endor",
          "genre_ids": [
              12,
              10751
          ],
          "backdrop_path": "/muzbs6VImwFwWwD2wXJnFFtAO8j.jpg",
          "adult": false,
          "overview": "The army of the Marauders, led by by King Terak and the witch Charal attack the Ewoks village. The parents and the brother of Cindel all die in this attack. Cindel and the Ewok Wicket escape and in a forrest they meet Teek a naughty and very fast animal. Teek takes them to a house in which a old man, Noa, lives. Like Cindel he also crashed with his Starcruiser on Endor. Together they fight Terak and Charal.",
          "release_date": "1985-11-24"
      },
      {
          "vote_count": 21,
          "id": 72694,
          "video": false,
          "vote_average": 7.2,
          "title": "The Making of 'Star Wars'",
          "popularity": 1.911,
          "poster_path": "/WgsInarGqxj5a33H1oO1IJACDU.jpg",
          "original_language": "en",
          "original_title": "The Making of 'Star Wars'",
          "genre_ids": [
              99
          ],
          "backdrop_path": "/oxWdpHHrdGaB3ZK4JpBnEQ8msrp.jpg",
          "adult": false,
          "overview": "Ever wonder how they ever managed to make a movie like Star Wars? Well, bickering droid duo C-3PO and R2-D2 host this tour of the mind of creator George Lucas and what inspired him to make the movie. Even interviewed are the cast and crew, even features scenes of when C-3PO, R2-D2, and Darth Vader planted their footprints (or in R2's case, tread-prints) into cement. Also discussed is Star Wars mania, how fans loved the movie, collected the merchandise and danced the disco music. Also shown are behind-the-scenes looks at the movie, as well as how difficult each effect was in doing since they didn't have the convenience of computer animation back then.",
          "release_date": "1977-09-16"
      },
      {
          "vote_count": 32,
          "id": 337755,
          "video": false,
          "vote_average": 7.9,
          "title": "Star Wars Rebels: The Siege of Lothal",
          "popularity": 2.563,
          "poster_path": "/pxMAPq5R7o3zQh5DmJ76cW5vVIu.jpg",
          "original_language": "en",
          "original_title": "Star Wars Rebels: The Siege of Lothal",
          "genre_ids": [
              12,
              16,
              878,
              28
          ],
          "backdrop_path": "/zgL6ESQoZePnwYRmpzxYWdQaXjG.jpg",
          "adult": false,
          "overview": "The Ghost crew and their allies face Darth Vader for the first time and Ahsoka Tano discovers the true identity of Darth Vader.",
          "release_date": "2015-04-18"
      },
      {
          "vote_count": 9,
          "id": 378386,
          "video": false,
          "vote_average": 6.6,
          "title": "Star Wars: Greatest Moments",
          "popularity": 1.242,
          "poster_path": "/65jlytLScOl2pEzm1ky6aagVreR.jpg",
          "original_language": "en",
          "original_title": "Star Wars: Greatest Moments",
          "genre_ids": [
              99
          ],
          "backdrop_path": null,
          "adult": false,
          "overview": "Alex Zane counts down the top 20 Star Wars moments as voted by the public. Includes contributions from famous fans as well as the stars and crew of the intergalactic saga.",
          "release_date": "2015-12-26"
      },
      {
          "vote_count": 6,
          "id": 81234,
          "video": false,
          "vote_average": 7.2,
          "title": "Lego Star Wars: Revenge of The Brick",
          "popularity": 1.445,
          "poster_path": "/yjp7x9PKCrmDtXxVQJiDFeV4ntG.jpg",
          "original_language": "en",
          "original_title": "Lego Star Wars: Revenge of The Brick",
          "genre_ids": [
              14,
              878,
              16,
              10751
          ],
          "backdrop_path": "/o7uqNjzJVOCtjGvzLx2Yzslr53t.jpg",
          "adult": false,
          "overview": "A brickfilm (Lego short film) loosely based on Star Wars Episode III: Revenge of the Sith.",
          "release_date": "2005-08-05"
      },
      {
          "vote_count": 5,
          "id": 102817,
          "video": false,
          "vote_average": 4.9,
          "title": "Quentin Tarantino's Star Wars",
          "popularity": 1.191,
          "poster_path": "/5jbEXq7SmyahaYWHQoyO6HVUPjj.jpg",
          "original_language": "en",
          "original_title": "Quentin Tarantino's Star Wars",
          "genre_ids": [
              16
          ],
          "backdrop_path": "/a61gR0hrF1dcBJqw7m45q1TTh87.jpg",
          "adult": false,
          "overview": "We're all familiar with the story: a long time ago in a galaxy far, far away, on a planet called Tattooine, a boy named Luke Skywalker is adopted by the only remaining Jedi knight and helps the Rebellion destroy the Death Star after learning the ways of the force. However, what if \"Pulp Fiction\" director Quentin Tarantino had directed George Lucas' script, using Kenner action figures and stop computer animation?",
          "release_date": "2002-06-09"
      },
      {
          "vote_count": 1,
          "id": 512517,
          "video": true,
          "vote_average": 10,
          "title": "Star Wars Bonus Material",
          "popularity": 0.875,
          "poster_path": "/gQKnhKUiw6He4UFLCBf54Ae9UyX.jpg",
          "original_language": "en",
          "original_title": "Star Wars Bonus Material",
          "genre_ids": [
              878
          ],
          "backdrop_path": "/heiUnwxqVS0kj1Q40KasiQMFJs2.jpg",
          "adult": false,
          "overview": "Bonus material available with the Star Wars Trilogy Boxset in 2004",
          "release_date": "2004-01-01"
      },
      {
          "vote_count": 2,
          "id": 549991,
          "video": false,
          "vote_average": 6,
          "title": "Star Wars: Revelations",
          "popularity": 0.602,
          "poster_path": "/v4DaCZm9XkeNNHvvptucseglHMY.jpg",
          "original_language": "de",
          "original_title": "Star Wars: Revelations",
          "genre_ids": [],
          "backdrop_path": null,
          "adult": false,
          "overview": "",
          "release_date": "2005-04-17"
      },
      {
          "vote_count": 0,
          "id": 550342,
          "video": false,
          "vote_average": 0,
          "title": "TK630 - A Star Wars Fan Film",
          "popularity": 1.51,
          "poster_path": "/zBtw3mZ8rT6zcmSaHXJA5PZEBrK.jpg",
          "original_language": "en",
          "original_title": "TK630 - A Star Wars Fan Film",
          "genre_ids": [],
          "backdrop_path": null,
          "adult": false,
          "overview": "Marooned on a forest planet, an Imperial scout trooper hunts a lone Jedi, when he discovers an unexpected ally.",
          "release_date": "2018-08-28"
      },
      {
          "vote_count": 4,
          "id": 79158,
          "video": false,
          "vote_average": 6.9,
          "title": "Lego Star Wars: Bombad Bounty",
          "popularity": 0.991,
          "poster_path": "/t0SfMeHDylGCxWYWgklekD4olHn.jpg",
          "original_language": "en",
          "original_title": "Lego Star Wars: Bombad Bounty",
          "genre_ids": [
              16,
              878,
              35,
              10751
          ],
          "backdrop_path": "/yEcME1KPEwbIg798y06d0rHn61m.jpg",
          "adult": false,
          "overview": "Vader hires Boba Fett to track down the gungan Jar Jar Binks for an accident he caused to Vader. The film also takes place at the same time as the original movies showing Jar Jar responsible for the destruction of the first Death Star and was with Boba at the Jabba's Barge event from Return of the Jedi.",
          "release_date": "2010-11-27"
      },
      {
          "vote_count": 6,
          "id": 376798,
          "video": false,
          "vote_average": 4.8,
          "title": "Star Wars: Evolution of the Lightsaber Duel",
          "popularity": 1.295,
          "poster_path": "/xVeTl156TdJsj7Hsgtqar8ygX1T.jpg",
          "original_language": "en",
          "original_title": "Star Wars: Evolution of the Lightsaber Duel",
          "genre_ids": [
              99
          ],
          "backdrop_path": null,
          "adult": false,
          "overview": "Though lightsabers have been a force in the Star Wars galaxy since George Lucas’ original film, the weapon’s on-screen presence evolved throughout both cinematic trilogies and into Star Wars: The Force Awakens. SportsCenter is tracing the lightsaber’s lineage through the films, and a new trailer for the special will definitely delight any fan’s inner Star Wars Kid.",
          "release_date": "2015-12-15"
      },
      {
          "vote_count": 14,
          "id": 128295,
          "video": false,
          "vote_average": 7.9,
          "title": "Star Wars: The Legacy Revealed",
          "popularity": 0.873,
          "poster_path": "/lwbUfngX33wbbUUEbxxFULtPo5R.jpg",
          "original_language": "en",
          "original_title": "Star Wars: The Legacy Revealed",
          "genre_ids": [
              99
          ],
          "backdrop_path": "/zLK9eOcW9oJ8pLrKp8zLAz9N5VH.jpg",
          "adult": false,
          "overview": "Film-makers and academics discuss the use of mythology in Star Wars and the impact of the films on society",
          "release_date": "2007-05-28"
      },
      {
          "vote_count": 1,
          "id": 570421,
          "video": false,
          "vote_average": 8.5,
          "title": "Star Wars: The Original Trilogy",
          "popularity": 0.84,
          "poster_path": "/fNDV8HP4jKTNcnFtfy7clDWdwC2.jpg",
          "original_language": "en",
          "original_title": "Star Wars: The Original Trilogy",
          "genre_ids": [],
          "backdrop_path": null,
          "adult": false,
          "overview": "Years later, the original Star Wars trilogy is regarded as one of the greatest film trilogies ever made and is as loved and admired as ever.",
          "release_date": ""
      },
      {
          "vote_count": 1,
          "id": 557469,
          "video": true,
          "vote_average": 6,
          "title": "Star Wars: Clone Wars: Connecting the Dots",
          "popularity": 0.6,
          "poster_path": "/9Rk2ijDFNZ8TWa8cm04Hb9sKhIT.jpg",
          "original_language": "en",
          "original_title": "Star Wars: Clone Wars: Connecting the Dots",
          "genre_ids": [
              12,
              878,
              14
          ],
          "backdrop_path": null,
          "adult": false,
          "overview": "Immediately after the events of Star Wars-Episode II: Attack of the Clones, the Clone Wars continue. The Separatists launch masses of Battle Droids while the Republic has an entire arsonal of Clone Troopers to blow them away. Obi-Wan Kenobi and his apprentice Anakin Skywalker are also participating in the fights against Count Dooku and his defiant separaists. Jedi Masters Yoda and Mace Windu, take part in the battle as well. While down on Coruscant, Padme Amidala, Chancellor Palpatine, C-3PO and R2-D2 hope nothing but good for our heroes. Will the Republic emerge triumphant? Will Dooku and his separatists be brought to their knees? And will Anakin truly bring balance to the Force, or will he bring absolutely tyranny?",
          "release_date": "2005-10-28"
      },
      {
          "vote_count": 0,
          "id": 489246,
          "video": false,
          "vote_average": 0,
          "title": "Clone Wars: Bridging the Saga",
          "popularity": 0.6,
          "poster_path": "/foiBitq6lt6vGpxKjCPdGhVrV0D.jpg",
          "original_language": "en",
          "original_title": "Clone Wars: Bridging the Saga",
          "genre_ids": [
              878,
              16,
              14
          ],
          "backdrop_path": null,
          "adult": false,
          "overview": "A short documentary on the making of the Cartoon Network's Clone Wars micro series, specifically the final 5 episodes.",
          "release_date": "2005-03-22"
      },
      {
          "vote_count": 5,
          "id": 184902,
          "video": true,
          "vote_average": 6.6,
          "title": "Star Wars The Clone Wars: Darth Maul Returns",
          "popularity": 1.018,
          "poster_path": "/on2dAF51xJv2aIJu9cRFn5ucd9Y.jpg",
          "original_language": "en",
          "original_title": "Star Wars The Clone Wars: Darth Maul Returns",
          "genre_ids": [
              16,
              14,
              878
          ],
          "backdrop_path": null,
          "adult": false,
          "overview": "A DVD collection of the final four episodes of Season Four of The Clone Wars 3D animated television series.",
          "release_date": "2012-06-28"
      }
  ]
}
