{
  "page": 3,
  "total_results": 149,
  "total_pages": 8,
  "results": [
      {
          "vote_count": 6,
          "id": 465886,
          "video": false,
          "vote_average": 7,
          "title": "Star Wars Rebels: Art Attack",
          "popularity": 0.804,
          "poster_path": null,
          "original_language": "en",
          "original_title": "Star Wars Rebels: Art Attack",
          "genre_ids": [],
          "backdrop_path": "/tMZKHUJOB1QhRe6xHwK1OAq5sJL.jpg",
          "adult": false,
          "overview": "Sabine sneaks into an Imperial compound to create an artful diversion for her friends aboard the Ghost.",
          "release_date": "2014-08-18"
      },
      {
          "vote_count": 0,
          "id": 521298,
          "video": false,
          "vote_average": 0,
          "title": "Star Wars Nothing But Star Wars",
          "popularity": 0.6,
          "poster_path": "/50Xf9wCG3OK2xvaEnZO7ZcmlPCa.jpg",
          "original_language": "en",
          "original_title": "Star Wars Nothing But Star Wars",
          "genre_ids": [
              99,
              35
          ],
          "backdrop_path": null,
          "adult": false,
          "overview": "The STAR WARS NOTHING BUT STAR WARS video mixtape is the ultimate feature-length comedy compilation documenting the last 40 years of the the Star Wars phenomenon and comprised entirely of unseen, lost, forgotten and is-this-real-or-am-I-dreaming archival Original Trilogy video madness.  Featuring Star Wars ripoffs, Star Wars TV specials, Star Wars commercials, Star Wars interviews and even shameless Star Wars pornography [rated R].  It’s Star Wars gone wild, gone weird and gone wrong, and there’s nothing else like it.  C-3PO rapping?  It’s here. Mark Hamill turns into a homicidal maniac?  Yep, we got it.  Jabba the Hutt Italo disco? Check. Tusken Raider Voyeur Pornography? Oh yeah, and lots of it. You’ve never seen Star Wars like this and you’ll never see Star Wars quite the same way after watching.",
          "release_date": "2017-05-29"
      },
      {
          "vote_count": 2,
          "id": 81418,
          "video": false,
          "vote_average": 5.5,
          "title": "Star Wars: Deleted Magic",
          "popularity": 0.652,
          "poster_path": "/qf6qlr8zqe8Pqrk2y9RcC43htde.jpg",
          "original_language": "en",
          "original_title": "Star Wars: Deleted Magic",
          "genre_ids": [
              99
          ],
          "backdrop_path": "/6LDinPQyhPUw5YXSk6ASTPPTgDH.jpg",
          "adult": false,
          "overview": "This is a very interesting Star Wars documentary about the making of the first Star Wars film (and to a lesser extent Empire and Jedi) including a look at some of the deleted scenes, behind the scenes footage, and notes on subtle things that you might have never seen or noticed before.",
          "release_date": "2005-03-01"
      },
      {
          "vote_count": 0,
          "id": 526653,
          "video": false,
          "vote_average": 0,
          "title": "The Unauthorized 'Star Wars' Story",
          "popularity": 0.6,
          "poster_path": "/xl2e0hQiwXHumaNUb2skSmS6Jzf.jpg",
          "original_language": "en",
          "original_title": "The Unauthorized 'Star Wars' Story",
          "genre_ids": [
              99
          ],
          "backdrop_path": null,
          "adult": false,
          "overview": "",
          "release_date": "1999-01-01"
      },
      {
          "vote_count": 2,
          "id": 432134,
          "video": false,
          "vote_average": 10,
          "title": "Star Wars: Heroes & Villains",
          "popularity": 0.6,
          "poster_path": "/5FqjtzTlEv6vqVlAMFeyEzZMRmo.jpg",
          "original_language": "en",
          "original_title": "Star Wars: Heroes & Villains",
          "genre_ids": [
              99
          ],
          "backdrop_path": null,
          "adult": false,
          "overview": "A look at the creation and filming of the various heroes and villains from all six Star Wars movies, leading up to the release of Star Wars: Episode III - Revenge of the Sith.",
          "release_date": "2005-05-03"
      },
      {
          "vote_count": 11,
          "id": 393047,
          "video": false,
          "vote_average": 6.5,
          "title": "Lego Star Wars: The Yoda Chronicles - The Phantom Clone",
          "popularity": 1.023,
          "poster_path": "/A46cBGRKdF6pkL7KEAJ590N9pxF.jpg",
          "original_language": "en",
          "original_title": "Lego Star Wars: The Yoda Chronicles - The Phantom Clone",
          "genre_ids": [
              28,
              16,
              878,
              12
          ],
          "backdrop_path": "/6OcxIi5qOkR6fHl5V5j2KoiTHLj.jpg",
          "adult": false,
          "overview": "Grievous lures Yoda away from the Jedi Temple and steals the Padawans light sabers. Dooku plans to use the crystals inside the light sabers to make Sith clones. It is up to Yoda and the Padawans to prevent Dooku from carrying out his plan.",
          "release_date": "2013-05-04"
      },
      {
          "vote_count": 0,
          "id": 405572,
          "video": false,
          "vote_average": 0,
          "title": "Ken Loach's Star Wars",
          "popularity": 0.6,
          "poster_path": "/gy04VLh5oMmpD1YwBgBqzFYbG0A.jpg",
          "original_language": "en",
          "original_title": "Star Wars Directed by Ken Loach",
          "genre_ids": [
              35
          ],
          "backdrop_path": null,
          "adult": false,
          "overview": "Trailer for Ken Loach's new sci fi movie set in Northern England. (Sort of.) A parody by Haiste and Lawrence.  First Prize ShortCom 2016 jury select winner.",
          "release_date": "2015-08-21"
      },
      {
          "vote_count": 0,
          "id": 496790,
          "video": false,
          "vote_average": 0,
          "title": "Star Wars: Destroyer",
          "popularity": 0.614,
          "poster_path": "/jF2bIGJXPG9zl0f7I8rpyjW6Qmu.jpg",
          "original_language": "en",
          "original_title": "Star Wars: Destroyer",
          "genre_ids": [
              878
          ],
          "backdrop_path": "/ipZLw6goZem8GTULhdwdEXc0jB7.jpg",
          "adult": false,
          "overview": "Victory may lead to disaster when X-Wing pilots disable a star destroyer sending it towards a nearby planet.",
          "release_date": "2017-05-04"
      },
      {
          "vote_count": 2,
          "id": 282315,
          "video": false,
          "vote_average": 7.5,
          "title": "Star Wars: Bounty Hunter - Beyond The Game",
          "popularity": 1.05,
          "poster_path": "/a6fQIcBnTyANRAj7TKCPkPK8wMX.jpg",
          "original_language": "en",
          "original_title": "Star Wars: Bounty Hunter - Beyond The Game",
          "genre_ids": [
              28,
              16,
              878
          ],
          "backdrop_path": "/9zrjNRHaFUUrhmDOtWRJ44fvVgP.jpg",
          "adult": false,
          "overview": "Jango Fett, the most feared and fearless bounty hunter in the galaxy. His mission is to find the leader of a mysterious and deadly cult. Armed with an array of deadly skills, his blaster and jetpack, Jango Fett faces off against the scum of the interstellar underworld to hunt down and destroy a deranged dark Jedi.",
          "release_date": "2013-09-19"
      },
      {
          "vote_count": 2,
          "id": 486215,
          "video": false,
          "vote_average": 5.5,
          "title": "Untitled Star Wars Trilogy: Episode I",
          "popularity": 0.945,
          "poster_path": null,
          "original_language": "en",
          "original_title": "Untitled Star Wars Trilogy: Episode I",
          "genre_ids": [
              878,
              14,
              28,
              12
          ],
          "backdrop_path": null,
          "adult": false,
          "overview": "The first in a trilogy of films, set apart from the Skywalker Saga.",
          "release_date": ""
      },
      {
          "vote_count": 1,
          "id": 154452,
          "video": false,
          "vote_average": 7,
          "title": "Star Wars Tech",
          "popularity": 0.6,
          "poster_path": "/mEkPSwbhy1WeMGM1GnPoCLPZFfA.jpg",
          "original_language": "en",
          "original_title": "Star Wars Tech",
          "genre_ids": [
              99
          ],
          "backdrop_path": null,
          "adult": false,
          "overview": "A documentary about the tech in Star Wars.",
          "release_date": "2007-05-28"
      },
      {
          "vote_count": 2,
          "id": 432038,
          "video": false,
          "vote_average": 5,
          "title": "Star Wars Downunder",
          "popularity": 0.6,
          "poster_path": "/pj3XjbPvQQRVGvcWsGx0jcFZVIA.jpg",
          "original_language": "en",
          "original_title": "Star Wars Downunder",
          "genre_ids": [
              878
          ],
          "backdrop_path": null,
          "adult": false,
          "overview": "The film tells the story of a lone Jedi: Merve Bushwacker, returning home after a long absence. His mission? To partake in a refreshing beverage, known locally as amber fluid. On his arrival, he is dismayed to discover the planet has become as dry as a dead dingo′s donger, thanks to the tyrannical rule of Darth Drongo. Drongo has hoarded all the amber fluid in his impenetrable fortress “Dunny’s Deep” for reasons unknown. Can Merve, and a motley collection of unlikely allies band together to topple Drongo’s evil regime? Will liberty and amber fluid flow freely once more?",
          "release_date": "2013-11-18"
      },
      {
          "vote_count": 1,
          "id": 432052,
          "video": false,
          "vote_average": 10,
          "title": "Saving Star Wars",
          "popularity": 0.6,
          "poster_path": "/wexZ1QJToLiOK9aZWJWDiCO9udF.jpg",
          "original_language": "en",
          "original_title": "Saving Star Wars",
          "genre_ids": [
              35
          ],
          "backdrop_path": null,
          "adult": false,
          "overview": "Two Star Wars fans venture to deliver a letter to George Lucas.",
          "release_date": "2004-06-09"
      },
      {
          "vote_count": 0,
          "id": 579314,
          "video": false,
          "vote_average": 0,
          "title": "A Star Wars Story",
          "popularity": 0.6,
          "poster_path": null,
          "original_language": "en",
          "original_title": "A Star Wars Story",
          "genre_ids": [],
          "backdrop_path": null,
          "adult": false,
          "overview": "A collection of films adding to the 'Star Wars' universe but not part of the main collection.",
          "release_date": ""
      },
      {
          "vote_count": 1,
          "id": 411511,
          "video": false,
          "vote_average": 6,
          "title": "Star Wars: Generations",
          "popularity": 0.6,
          "poster_path": "/uIqOMze5C6VAMougq0zXuHuFJmh.jpg",
          "original_language": "en",
          "original_title": "Star Wars: Generations",
          "genre_ids": [],
          "backdrop_path": null,
          "adult": false,
          "overview": "A young boy and his Grandfather use their imagination to take us back to a galaxy far, far away.",
          "release_date": "2016-07-08"
      },
      {
          "vote_count": 1,
          "id": 515773,
          "video": false,
          "vote_average": 7,
          "title": "Star Wars Spoofs",
          "popularity": 0.6,
          "poster_path": "/ApEnrioR2GrkyWVXCrIzDMtgk9b.jpg",
          "original_language": "en",
          "original_title": "Star Wars Spoofs",
          "genre_ids": [
              35
          ],
          "backdrop_path": "/aUxPyo0Olrr6qs33fKkjbX2piYk.jpg",
          "adult": false,
          "overview": "The farce is strong with this one! Enjoy a hilarious collection of Star Wars movie scene spoofs and parodies that have been created over the years, including outrageous clips from Family Guy, The Simpsons, How I Met Your Mother, and more - and don't miss \"Weird Al\" Yankovic's one-of-a-kind music video tribute to The Phantom Menace!",
          "release_date": "2011-01-01"
      },
      {
          "vote_count": 2,
          "id": 557891,
          "video": false,
          "vote_average": 8,
          "title": "Star Wars: Dresca",
          "popularity": 0.6,
          "poster_path": "/v100TPcl72RlvJ31FXUdGMQYEVW.jpg",
          "original_language": "en",
          "original_title": "Star Wars: Dresca",
          "genre_ids": [
              878
          ],
          "backdrop_path": null,
          "adult": false,
          "overview": "When Dresca - an injured Imperial pilot - is rescued by rebels after the Battle of Endor, she must choose between her loyalty to the Empire and the kindness of strangers she once thought of as monsters.",
          "release_date": ""
      },
      {
          "vote_count": 0,
          "id": 479257,
          "video": true,
          "vote_average": 0,
          "title": "Star Wars: Crapisode I",
          "popularity": 0.6,
          "poster_path": "/tpeNZ7mWdaeFJs2bej0Wv4NAgY6.jpg",
          "original_language": "en",
          "original_title": "Star Wars: Crapisode I",
          "genre_ids": [],
          "backdrop_path": null,
          "adult": false,
          "overview": "Every generation has fanatics. Every Star Wars fan has a dream. Every fan film has a crappy synopsis. In the endless lull before Episode II, anxious fans are losing heart - but one fan, receiving his father's lightsaber in the mail, embarks on a journey of danger, excitement, and cutting stuff in half.",
          "release_date": "2000-01-01"
      },
      {
          "vote_count": 0,
          "id": 496538,
          "video": false,
          "vote_average": 0,
          "title": "Star Wars: Emergence",
          "popularity": 0.6,
          "poster_path": "/gf4VMJpb9e59Z3Ns8T66Oqtclqo.jpg",
          "original_language": "en",
          "original_title": "Star Wars: Emergence",
          "genre_ids": [
              878,
              18
          ],
          "backdrop_path": null,
          "adult": false,
          "overview": "Alenna, a Jedi Apprentice, wakes up after an attack in the forest, and finds herself alone and blinded. \"Emergence\" portrays her journey to redefine her purpose and identity as a Jedi Knight. We explore the Force, and how she might use it to supplement her loss of sight, and we see her overcome personal, inner battles as she becomes a powerful, confident Jedi once again. \"Emergence\" is a story we can all relate to, as we all overcome fear and uncertainty in becoming who we are meant to be.",
          "release_date": "2016-05-04"
      },
      {
          "vote_count": 2,
          "id": 501244,
          "video": false,
          "vote_average": 6.8,
          "title": "Star wars 40 ans",
          "popularity": 0.6,
          "poster_path": "/oMMkmBbwgjbOpPLuIZnNsBAfyUs.jpg",
          "original_language": "fr",
          "original_title": "Star wars 40 ans",
          "genre_ids": [
              99
          ],
          "backdrop_path": "/3t1CxhG0P3H2kv866Vgh1ETUwKi.jpg",
          "adult": false,
          "overview": "",
          "release_date": "2017-10-19"
      }
  ]
}
